/* XPM */
static const char * target_xpm[] = {
"16 16 6 1",
" 	c None",
".	c #C0C0C0",
"+	c #FF0000",
"@	c #FFFFFF",
"#	c #0000FF",
"$	c #000000",
"................",
".......++++.....",
"..++++++@@++....",
"..+@@@@#@@@++...",
"..+@@@@#@@@@+...",
"..+@@@$#$@@@+...",
".+@@@$@#@$@@++..",
".+@@$@@#@@$@@++.",
".+@##########@+.",
"..++$@@#@@$@@@+.",
"...+@$@#@$@@@@+.",
"...+@@$#$@@@+++.",
"...+@@@#@@@@+...",
"...+@@+++++++...",
"...++++.........",
"................"};
